dump.vcd
$date
Thu Aug 25 03:31:35 2022
$end
$version
Riviera-PRO Version 2022.04.117.8517
$end
$timescale
1 ps
$end

$scope module test_fifo $end
$var wire 8 ! dout [7:0] $end
$var wire 1 " full $end
$var wire 1 # empty $end
$var reg 1 $ clk $end
$var reg 1 % reset $end
$var reg 1 & wr_en $end
$var reg 1 ' rd_en $end
$var reg 8 ( din [7:0] $end

$scope task rst $end
$upscope $end


$scope task wr_rd_init $end
$upscope $end


$scope task write $end
$var reg 8 ) wdata [7:0] $end
$upscope $end


$scope task write16 $end
$upscope $end


$scope task endwrite $end
$upscope $end


$scope task read $end
$upscope $end


$scope task read16 $end
$upscope $end


$scope task endread $end
$upscope $end

$upscope $end

$enddefinitions $end
$dumpvars
bx !
x"
x#
0$
x%
x&
x'
bx (
bx )
$end
#5000
1$
#10000
1%
0$
#15000
1$
1#
0"
#20000
0$
#25000
1$
#30000
0%
0&
0'
b0 (
b11111111 )
0$
#35000
1$
1&
b11111111 (
b11111110 )
#40000
0$
#45000
1$
b11111110 (
b11111101 )
0#
#50000
0$
#55000
1$
b11111101 (
b11111100 )
#60000
0$
#65000
1$
b11111100 (
b11111011 )
#70000
0$
#75000
1$
b11111011 (
b11111010 )
#80000
0$
#85000
1$
b11111010 (
b11111001 )
#90000
0$
#95000
1$
b11111001 (
b11111000 )
#100000
0$
#105000
1$
b11111000 (
b11110111 )
#110000
0$
#115000
1$
b11110111 (
b11110110 )
#120000
0$
#125000
1$
b11110110 (
b11110101 )
#130000
0$
#135000
1$
b11110101 (
b11110100 )
#140000
0$
#145000
1$
b11110100 (
b11110011 )
#150000
0$
#155000
1$
b11110011 (
b11110010 )
#160000
0$
#165000
1$
b11110010 (
b11110001 )
#170000
0$
#175000
1$
b11110001 (
b11110000 )
#180000
0$
#185000
1$
b11110000 (
b10001 )
#190000
0$
#195000
1$
b0 (
0&
1"
#200000
0$
#205000
1$
1'
#210000
0$
#215000
1$
0"
b11111111 !
#220000
0$
#225000
1$
b11111110 !
#230000
0$
#235000
1$
b11111101 !
#240000
0$
#245000
1$
b11111100 !
#250000
0$
#255000
1$
b11111011 !
#260000
0$
#265000
1$
b11111010 !
#270000
0$
#275000
1$
b11111001 !
#280000
0$
#285000
1$
b11111000 !
#290000
0$
#295000
1$
b11110111 !
#300000
0$
#305000
1$
b11110110 !
#310000
0$
#315000
1$
b11110101 !
#320000
0$
#325000
1$
b11110100 !
#330000
0$
#335000
1$
b11110011 !
#340000
0$
#345000
1$
b11110010 !
#350000
0$
#355000
1$
b11110001 !
#360000
0$
#365000
1$
0'
1#
b11110000 !
